  25  25  28  32  39 128 192 191 190 187 186 187 188 188 187 181
  27  27  31  35  42 134 195 195 193 192 192 193 192 192 192 187
  28  28  31  36  41 139 196 196 193 195 196 196 196 195 195 191
  31  32  33  36  44 148 196 198 197 196 197 195 194 194 194 193
  33  39  39  39  49 162 196 196 198 199 196 194 192 192 192 192
 138 147 147 148 147 177 193 195 197 198 186 132 134 136 136 127
 200 192 191 192 191 190 193 196 198 198 160  53  60  59  56  52
 203 196 196 196 195 195 195 196 197 197 156  38  38  35  34  35
 203 198 198 197 197 195 195 197 197 197 160  41  34  31  33  34
 203 197 196 194 196 195 194 196 197 197 153  42  39  38  38  34
 165 162 163 165 167 184 196 195 197 195 171  91  96  95  94  92
  45  53  57  58  62 140 198 197 196 196 193 190 190 190 189 188
  33  34  35  39  46 165 196 197 196 195 195 195 194 193 194 189
  31  32  32  34  43 159 198 197 197 196 195 195 194 193 193 189
  29  30  30  31  41 147 197 196 196 195 195 194 193 192 194 191
  27  30  30  30  42 139 196 194 194 195 195 194 194 194 193 188
  19  20  20  21  22 101 175 175 174 174 175 175 176 176 175 174
  19  19  20  20  22 102 174 178 177 176 176 177 177 177 177 176
  18  20  20  21  23 101 176 177 177 177 178 178 178 177 177 177
  19  19  21  22  24 115 176 178 178 177 179 179 178 178 177 179
  21  23  23  23  27 129 178 177 177 178 179 179 177 176 175 178
 117 130 129 130 128 157 176 177 177 178 167 107 104 104 105 101
 172 177 176 177 177 176 177 179 179 178 146  31  25  25  23  23
 175 176 176 178 177 178 177 178 179 178 146  30  23  20  21  22
 176 177 177 178 178 176 176 179 179 179 148  30  24  21  20  21
 175 176 177 178 177 176 175 178 179 179 143  31  25  23  23  22
 136 142 140 141 143 163 176 176 179 176 159  76  72  70  72  75
  21  24  25  26  26 104 177 178 178 178 176 175 174 174 174 178
  20  21  21  24  22 128 177 177 178 177 176 177 176 175 176 177
  20  21  21  22  21 122 178 177 178 178 177 176 176 175 175 174
  19  19  19  21  22 113 176 176 177 177 177 177 177 174 176 177
  19  19  19  19  21 106 176 176 176 177 177 176 176 174 173 175
  22  24  26  27  26 104 175 179 179 178 178 178 179 180 179 181
  25  27  26  25  27 105 175 179 181 180 180 181 179 179 178 180
  26  28  27  26  27 106 178 180 180 180 181 182 182 180 178 182
  28  28  27  28  31 119 177 179 179 180 181 181 180 180 178 183
  29  31  30  31  37 134 177 179 181 182 183 182 180 180 178 182
 126 136 137 139 135 161 179 181 182 182 174 117 111 112 113 108
 180 182 181 182 181 180 181 183 184 183 155  46  37  36  33  33
 181 184 183 183 182 183 181 182 183 182 157  48  33  30  29  29
 180 183 183 184 184 182 182 183 183 183 158  48  32  29  28  27
 181 181 181 181 183 182 180 181 181 182 153  49  33  30  28  27
 143 149 151 151 151 168 179 178 181 180 165  86  80  76  75  79
  28  36  41  40  39 109 177 180 182 182 178 175 174 175 174 179
  27  28  29  31  31 133 177 179 180 180 178 177 179 178 178 180
  27  27  29  28  29 125 178 179 179 180 180 180 178 178 179 179
  24  25  25  24  27 115 177 179 181 181 180 178 177 176 178 181
  24  24  24  23  28 108 178 183 182 181 181 179 179 178 177 181

 181 187 191 193 192 127  52  35  34  34  92 188 189 189 191 188
 187 192 195 194 192 136  56  34  33  38  94 189 194 193 194 193
 188 192 195 194 192 136  59  35  31  38  95 190 193 193 192 194
 188 192 196 194 192 134  60  38  34  39  96 190 194 194 193 194
 187 193 196 195 194 132  53  38  41  42  91 190 195 195 194 194
 186 192 196 197 196 186 160 156 160 153 171 193 195 195 195 195
 187 192 195 196 199 198 198 197 197 197 195 196 195 196 195 195
 190 193 193 197 198 197 198 197 197 197 197 196 196 197 196 194
 191 195 196 198 196 195 196 196 197 196 195 197 197 197 196 194
 192 195 196 196 196 193 193 195 195 194 196 198 196 198 197 196
 128 134 139 148 162 177 190 195 195 195 184 140 165 159 147 139
  39  42  41  44  49 147 191 195 197 196 167  62  46  43  41  42
  32  35  36  36  39 148 192 196 197 194 165  58  39  34  31  30
  28  31  31  33  39 147 191 196 198 196 163  57  35  32  30  30
  25  27  28  32  39 147 192 196 198 197 162  53  34  32  30  30
  25  27  28  31  33 138 200 203 203 203 165  45  33  31  29  27
 174 176 177 179 178 101  23  22  21  22  75 178 177 174 177 175
 175 177 177 177 175 105  23  21  20  23  72 174 176 175 176 173
 176 177 177 178 176 104  25  20  21  23  70 174 175 175 174 174
 176 177 178 178 177 104  25  23  24  25  72 174 176 176 177 176
 175 177 178 179 179 107  31  30  30  31  76 175 177 176 177 176
 175 176 178 179 179 167 146 146 148 143 159 176 176 177 177 177
 174 176 177 177 178 178 178 178 179 179 176 178 177 178 177 177
 174 177 177 178 177 177 179 179 179 179 179 178 178 178 177 176
 175 178 177 178 177 177 179 178 179 178 176 178 177 177 176 176
 175 174 176 176 178 176 177 177 176 175 176 177 177 178 176 176
 101 102 101 115 129 157 176 178 176 176 163 104 128 122 113 106
  22  22  23  24  27 128 177 177 178 177 143  26  22  21  22  21
  21  20  21  22  23 130 177 178 178 178 141  26  24  22  21  19
  20  20  20  21  23 129 176 176 177 177 140  25  21  21  19  19
  20  19  20  19  23 130 177 176 177 176 142  24  21  21  19  19
  19  19  18  19  21 117 172 175 176 175 136  21  20  20  19  19
 181 180 182 183 182 108  33  29  27  27  79 179 180 179 181 181
 179 178 178 178 178 113  33  29  28  28  75 174 178 179 178 177
 180 179 180 180 180 112  36  30  29  30  76 175 178 178 176 178
 179 179 182 180 180 111  37  33  32  33  80 174 179 178 177 179
 178 181 182 181 182 117  46  48  48  49  86 175 177 180 178 179
 178 180 181 181 183 174 155 157 158 153 165 178 178 180 180 181
 178 180 180 180 182 182 183 182 183 182 180 182 180 180 181 181
 179 181 180 179 181 182 184 183 183 181 181 182 180 179 181 182
 179 179 180 179 179 181 183 182 183 181 178 180 179 179 179 183
 175 175 178 177 177 179 181 181 182 180 179 177 177 178 177 178
 104 105 106 119 134 161 180 183 182 182 168 109 133 125 115 108
  26  27  27  31  37 135 181 182 184 183 151  39  31  29  27  28
  27  25  26  28  31 139 182 183 184 181 151  40  31  28  24  23
  26  26  27  27  30 137 181 183 183 181 151  41  29  29  25  24
  24  27  28  28  31 136 182 184 183 181 149  36  28  27  25  24
  22  25  26  28  29 126 180 181 180 181 143  28  27  27  24  24

 188 193 194 194 194 195 195 194 194 196 139  42  30  30  30  27
 191 194 192 193 194 195 195 196 196 197 147  41  31  30  30  29
 189 193 193 194 195 195 196 197 197 198 159  43  34  32  32  31
 189 194 193 194 195 195 195 196 197 196 165  46  39  35  34  33
 188 189 190 190 190 193 196 196 197 198 140  62  58  57  53  45
  92  94  95  96  91 171 195 197 195 196 184 167 165 163 162 165
  34  38  38  39  42 153 197 197 196 194 195 196 194 196 197 203
  34  33  31  34  41 160 197 197 197 195 195 197 197 198 198 203
  35  34  35  38  38 156 197 197 196 195 195 195 196 196 196 203
  52  56  59  60  53 160 198 198 196 193 190 191 192 191 192 200
 127 136 136 134 132 186 198 197 195 193 177 147 148 147 147 138
 192 192 192 192 194 196 199 198 196 196 162  49  39  39  39  33
 193 194 194 194 195 197 196 197 198 196 148  44  36  33  32  31
 191 195 195 196 196 196 195 193 196 196 139  41  36  31  28  28
 187 192 192 192 193 192 192 193 195 195 134  42  35  31  27  27
 181 187 188 188 187 186 187 190 191 192 128  39  32  28  25  25
 175 173 174 176 176 177 177 176 176 176 106  21  19  19  19  19
 177 176 174 177 177 177 177 177 176 176 113  22  21  19  19  19
 174 175 175 176 176 177 178 178 177 178 122  21  22  21  21  20
 177 176 175 176 177 176 177 178 177 177 128  22  24  21  21  20
 178 174 174 174 175 176 178 178 178 177 104  26  26  25  24  21
  75  72  70  72  76 159 176 179 176 176 163 143 141 140 142 136
  22  23  23  25  31 143 179 179 178 175 176 177 178 177 176 175
  21  20  21  24  30 148 179 179 179 176 176 178 178 177 177 176
  22  21  20  23  30 146 178 179 178 177 178 177 178 176 176 175
  23  23  25  25  31 146 178 179 179 177 176 177 177 176 177 172
 101 105 104 104 107 167 178 177 177 176 157 128 130 129 130 117
 178 175 176 177 179 179 178 177 177 178 129  27  23  23  23  21
 179 177 178 178 179 179 177 178 178 176 115  24  22  21  19  19
 177 177 177 178 178 178 177 177 177 176 101  23  21  20  20  18
 176 177 177 177 177 176 176 177 178 174 102  22  20  20  19  19
 174 175 176 176 175 175 174 174 175 175 101  22  21  20  20  19
 181 177 178 179 179 181 181 182 183 178 108  28  23  24  24  24
 181 178 176 177 178 180 181 181 179 177 115  27  24  25  25  24
 179 179 178 178 180 180 180 179 179 178 125  29  28  29  27  27
 180 178 178 179 177 178 180 180 179 177 133  31  31  29  28  27
 179 174 175 174 175 178 182 182 180 177 109  39  40  41  36  28
  79  75  76  80  86 165 180 181 178 179 168 151 151 151 149 143
  27  28  30  33  49 153 182 181 181 180 182 183 181 181 181 181
  27  28  29  32  48 158 183 183 183 182 182 184 184 183 183 180
  29  29  30  33  48 157 182 183 182 181 183 182 183 183 184 181
  33  33  36  37  46 155 183 184 183 181 180 181 182 181 182 180
 108 113 112 111 117 174 182 182 181 179 161 135 139 137 136 126
 182 178 180 180 182 183 182 181 179 177 134  37  31  30  31  29
 183 178 180 180 181 181 180 179 179 177 119  31  28  27  28  28
 182 178 180 182 182 181 180 180 180 178 106  27  26  27  28  26
 180 178 179 179 181 180 180 181 179 175 105  27  25  26  27  25
 181 179 180 179 178 178 178 179 179 175 104  26  27  26  24  22

  27  29  31  33  45 165 203 203 203 200 138  33  31  28  27  25
  30  30  32  34  53 162 197 198 196 192 147  39  32  28  27  25
  30  30  32  35  57 163 196 198 196 191 147  39  33  31  31  28
  30  31  34  39  58 165 194 197 196 192 148  39  36  36  35  32
  42  41  43  46  62 167 196 197 195 191 147  49  44  41  42  39
 139 147 159 165 140 184 195 195 195 190 177 162 148 139 134 128
 196 197 198 196 198 196 194 195 195 193 193 196 196 196 195 192
 194 196 197 197 197 195 196 197 196 196 195 196 198 196 195 191
 194 196 197 196 196 197 197 197 197 198 197 198 197 193 193 190
 195 195 196 195 196 195 197 197 197 198 198 199 196 195 192 187
 195 195 195 195 193 171 153 160 156 160 186 196 197 196 192 186
 194 194 195 195 190  91  42  41  38  53 132 194 195 196 193 187
 194 193 194 194 190  96  39  34  38  60 134 192 194 196 192 188
 194 192 193 193 190  95  38  31  35  59 136 192 194 195 192 188
 193 194 193 194 189  94  38  33  34  56 136 192 194 195 192 187
 188 191 189 189 188  92  34  34  35  52 127 192 193 191 187 181
  19  19  20  20  21 136 175 176 175 172 117  21  19  18  19  19
  19  19  21  21  24 142 176 177 176 177 130  23  19  20  19  20
  19  19  21  21  25 140 177 177 176 176 129  23  21  20  20  20
  19  21  22  24  26 141 178 178 178 177 130  23  22  21  20  21
  21  22  21  22  26 143 177 178 177 177 128  27  24  23  22  22
 106 113 122 128 104 163 176 176 178 176 157 129 115 101 102 101
 176 176 178 177 177 176 175 176 177 177 176 178 176 176 174 175
 176 176 177 177 178 176 178 179 178 179 177 177 178 177 178 175
 176 177 178 178 178 179 179 179 179 179 177 177 178 177 177 174
 177 177 178 177 178 176 179 179 178 178 178 178 177 177 176 174
 177 177 177 176 176 159 143 148 146 146 167 179 179 178 176 175
 176 177 176 177 175  76  31  30  30  31 107 179 179 178 177 175
 176 177 176 176 174  72  25  24  23  25 104 177 178 178 177 176
 174 174 175 175 174  70  23  21  20  25 104 176 178 177 177 176
 173 176 175 176 174  72  23  20  21  23 105 175 177 177 177 175
 175 177 174 177 178  75  22  21  22  23 101 178 179 177 176 174
  24  24  27  27  28 143 181 180 181 180 126  29  28  26  25  22
  24  25  27  28  36 149 181 183 184 182 136  31  28  28  27  24
  24  25  29  29  41 151 181 183 183 181 137  30  27  27  26  26
  23  24  28  31  40 151 181 184 183 182 139  31  28  26  25  27
  28  27  29  31  39 151 183 184 182 181 135  37  31  27  27  26
 108 115 125 133 109 168 182 182 183 180 161 134 119 106 105 104
 178 177 178 177 177 179 180 182 181 181 179 177 177 178 175 175
 183 179 179 179 180 178 181 183 182 183 181 179 179 180 179 179
 182 181 179 180 182 181 181 183 183 184 182 181 179 180 181 179
 181 181 180 180 182 180 182 183 182 183 182 182 180 180 180 178
 181 180 180 178 178 165 153 158 157 155 174 183 181 181 180 178
 179 178 180 177 175  86  49  48  48  46 117 182 181 182 181 178
 179 177 178 179 174  80  33  32  33  37 111 180 180 182 179 179
 178 176 178 178 175  76  30  29  30  36 112 180 180 180 179 180
 177 178 179 178 174  75  28  28  29  33 113 178 178 178 178 179
 181 181 179 180 179  79  27  27  29  33 108 182 183 182 180 181

